***********Soy un Texto metido desde pythom++++++++++++++++++++
***********Soy un Texto metido desde pythom++++++++++++++++++++
7
***********Soy un Texto metido desde pythom++++++++++++++++++++
***********Soy un Texto metido desde pythom++++++++++++++++++++
***********Soy un Texto metido desde pythom++++++++++++++++++++
***********Soy un Texto metido desde pythom++++++++++++++++++++
***********Soy un Texto metido desde pythom++++++++++++++++++++
***********Soy un Texto metido desde pythom++++++++++++++++++++
***********Soy un Texto metido desde pythom++++++++++++++++++++
***********Soy un Texto metido desde pythom++++++++++++++++++++
***********Soy un Texto metido desde pythom++++++++++++++++++++
***********Soy un Texto metido desde pythom++++++++++++++++++++
***********Soy un Texto metido desde pythom++++++++++++++++++++
***********Soy un Texto metido desde pythom++++++++++++++++++++
